{
  "migIndex": 1,
  "data": [
    {
      "path": "assets/fonts/Bitter-Italic-VariableFont_wght.ttf",
      "sha1": "55d45e439d9dd521f15108cc1d54e35648e707fb"
    },
    {
      "path": "assets/fonts/Bitter-VariableFont_wght.ttf",
      "sha1": "350281193c901a30bcd9e45e269b7e161418f467"
    }
  ]
}
